{
  "src": {
    "pug": "src/pug/main.pug",
    "ts": "src/ts/**/*.{ts,tsx}",
    "scss": "src/scss/main.scss",
    "img": "src/img/background/**/*.*",
    "sprite": "src/img/sprite/**/*.*"
  },
  "build": {
    "img": "build/img",
    "html": "build",
    "js": "build/js",
    "css": "build/css"
  },
  "watch": {
    "pug": "src/pug/**/*.pug",
    "scss": "src/scss/**/*.{scss,css}",
    "img": "src/img/background/**/*.*",
    "sprite": "src/img/sprite/**/*.*"
  },
  "clean": "build",
  "browserSync": {
    "port": 3000,
    "baseDir": "build"
  },
  "sprite": {
    "varible": "src/scss/varible",
    "cssName": "_sprite.scss",
    "cssFormat": "scss",
    "imgName": "sprite.png"
  }
}
